{
  "src_folders": "./projects/tests",
  "output_folder": "./reports",
  "custom_commands_path": "./lib/custom/commands",
  "custom_assertions_path": "",
  "page_objects_path": [
    "./projects/pages"
  ],
  "globals_path": "./projects/globals",
  "test_workers": {
    "enabled": false,
    "workers": "auto"
  },
  "live_output": false,
  "selenium": {
    "start_process": true,
    "server_path": "./node_modules/selenium-server-standalone-jar/jar/selenium-server-standalone-2.53.1.jar",
    "log_path": false,
    "host": "127.0.0.1",
    "port": 4444,
    "cli_args": {
      "webdriver.chrome.driver": "./node_modules/chromedriver/lib/chromedriver/chromedriver",
      "webdriver.ie.driver": "",
      "webdriver.firefox.profile": ""
    }
  },
  "test_settings": {
    "default": {
      "launch_url": "http://webcomponents.local.ro/webcomponents/test/floor-planner.html",
      "selenium_host": "127.0.0.1",
      "selenium_port": 4444,
      "silent": true,
      "disable_colors": false,
      "end_session_on_fail" : true,
      "screenshots": {
        "enabled": true,
        "on_failure": true,
        "on_error": true,
        "path": "./screenshots"
      },
      "desiredCapabilities": {
        "browserName": "chrome",
        "javascriptEnabled": true,
        "acceptSslCerts": true
      }
    },
    "firefox": {
      "launch_url": "https://qa3-drivers.dpd.co.uk",
      "selenium_host": "127.0.0.1",
      "selenium_port": 4444,
      "silent": true,
      "disable_colors": false,
      "screenshots": {
        "enabled": true,
        "on_failure": true,
        "on_error": true,
        "path": "./screenshots"
      },
      "desiredCapabilities": {
        "browserName": "firefox",
        "javascriptEnabled": true,
        "acceptSslCerts": true
      }
    },
    "safari": {
      "launch_url": "https://qa3-drivers.dpd.co.uk",
      "selenium_host": "127.0.0.1",
      "selenium_port": 4444,
      "silent": true,
      "disable_colors": false,
      "screenshots": {
        "enabled": true,
        "on_failure": true,
        "on_error": true,
        "path": "./screenshots"
      },
      "desiredCapabilities": {
        "browserName": "safari",
        "javascriptEnabled": true,
        "acceptSslCerts": true
      }
    },
    "staging": {
      "launch_url": "https://qa3-drivers.dpd.co.uk",
      "selenium_host": "127.0.0.1",
      "selenium_port": 4444,
      "silent": true,
      "disable_colors": false,
      "screenshots": {
        "enabled": false,
        "path": ""
      },
      "desiredCapabilities": {
        "browserName": "firefox",
        "javascriptEnabled": true,
        "acceptSslCerts": true
      }
    }
  },
  "nightwatcher_config": {
    "output_on_console": true
  }
}
