[
    {
        "core.stop": [
            [
                "route_id",
                "route_stop",
                "optimum_stop",
                "stop_exception",
                "stop_eta",
                "opportunity_time",
                "stop_coincidence",
                "service_start_time",
                "service_end_time",
                "stop_time",
                "stop_type",
                "total_items",
                "published_eta_start",
                "published_eta_end",
                "is_bulk",
                "is_single_stop",
                "multiple_swap_its",
                "drive_to_time",
                "best_owner",
                "best_service"
            ],
            [
                1,
                1,
                1,
                1,
                "00:00:00",
                0,
                1,
                "08:00:00",
                "21:00:00",
                120,
                2,
                100,
                "00:00:12",
                "00:00:50",
                0,
                0,
                123,
                123,
                127,
                "65"
            ],
            [
                1,
                2,
                1,
                1,
                "00:00:00",
                0,
                1,
                "08:00:00",
                "21:00:00",
                120,
                2,
                200,
                "00:00:14",
                "00:00:55",
                1,
                1,
                127,
                3456,
                23,
                "645"
            ],
            [
                2,
                1,
                1,
                1,
                "00:00:00",
                0,
                1,
                "08:00:00",
                "22:00:00",
                120,
                2,
                300,
                "00:00:15",
                "00:00:58",
                0,
                4,
                11,
                324,
                65,
                "456"
            ]
        ]
    },
    {
        "core.stop_parcel": [
            [
                "route_id",
                "route_stop",
                "parcel_index",
                "parcel_code",
                "parcel_number"
            ],
            [
                1,
                1,
                1,
                "05228050401122*17603",
                "05228050401122*"
            ]
        ]
    },
    {
        "core.stop_collection": [
            [
                "route_id",
                "route_stop",
                "collection_index",
                "collection_code",
                "collection_number"
            ],
            [
                1,
                1,
                1,
                "0010*17540*688467",
                "0010*17540*"
            ]
        ]
    },
    {
        "core.product": []
    }
]